a)
if ( x < 10 )
if ( y > 10 )
cout << "*****" << endl;
else
cout << "#####" << endl;
cout << "$$$$$" << endl;

if x = 9 and y = 11
program will print

*****
$$$$$

if x = 11 and y = 9
program will print

$$$$$


b)
if ( x < 10 )
{
if ( y > 10 )
cout << "*****" << endl;
}
else
{
cout << "#####" << endl;
cout << "$$$$$" << endl;
}

if x = 9 and y = 11
program will print 

*****

if x = 11 and y = 9
program will print 

#####
$$$$$
